%YAML 1.1
%TAG !u! tag:unity3d.com,2011:
--- !u!114 &11400000
MonoBehaviour:
  m_ObjectHideFlags: 0
  m_CorrespondingSourceObject: {fileID: 0}
  m_PrefabInstance: {fileID: 0}
  m_PrefabAsset: {fileID: 0}
  m_GameObject: {fileID: 0}
  m_Enabled: 1
  m_EditorHideFlags: 0
  m_Script: {fileID: 11500000, guid: 9d1514134bc4fbd41bb739b1b9a49231, type: 3}
  m_Name: Roof
  m_EditorClassIdentifier: 
  m_DefaultSprite: {fileID: 21300010, guid: e3ebf43a7b812c34e9e680d206441214, type: 3}
  m_DefaultColliderType: 1
  m_TilingRules:
  - m_Neighbors: 0100000001000000010000000100000001000000010000000100000001000000
    m_Sprites:
    - {fileID: 21300000, guid: 51fd2601cb75ffd48abd872f84a8afe9, type: 3}
    m_AnimationSpeed: 1
    m_PerlinScale: 0.5
    m_RuleTransform: 0
    m_Output: 0
    m_ColliderType: 1
    m_RandomTransform: 0
  - m_Neighbors: 0000000001000000010000000200000001000000020000000200000002000000
    m_Sprites:
    - {fileID: 21300000, guid: 6362813f0a671994fb7862d99259b4b7, type: 3}
    m_AnimationSpeed: 1
    m_PerlinScale: 0.5
    m_RuleTransform: 0
    m_Output: 0
    m_ColliderType: 1
    m_RandomTransform: 0
  - m_Neighbors: 0100000001000000000000000100000002000000020000000000000002000000
    m_Sprites:
    - {fileID: 21300000, guid: 420f88b64fe1fc74d949f28fe45eede2, type: 3}
    m_AnimationSpeed: 1
    m_PerlinScale: 0.5
    m_RuleTransform: 0
    m_Output: 0
    m_ColliderType: 1
    m_RandomTransform: 0
  - m_Neighbors: 0000000000000000010000000200000001000000020000000100000001000000
    m_Sprites:
    - {fileID: 21300000, guid: adff512922dbb0243b1525fd94f5cba3, type: 3}
    m_AnimationSpeed: 1
    m_PerlinScale: 0.5
    m_RuleTransform: 0
    m_Output: 0
    m_ColliderType: 1
    m_RandomTransform: 0
  - m_Neighbors: 0100000001000000000000000100000002000000010000000100000002000000
    m_Sprites:
    - {fileID: 21300000, guid: 9cab5856e334c8f4fb2bb63778ba32d6, type: 3}
    m_AnimationSpeed: 1
    m_PerlinScale: 0.5
    m_RuleTransform: 0
    m_Output: 0
    m_ColliderType: 1
    m_RandomTransform: 0
  - m_Neighbors: 0200000002000000020000000100000002000000010000000100000000000000
    m_Sprites:
    - {fileID: 21300000, guid: 18b0a57c73873e44095757815f03c8d9, type: 3}
    m_AnimationSpeed: 1
    m_PerlinScale: 0.5
    m_RuleTransform: 0
    m_Output: 0
    m_ColliderType: 1
    m_RandomTransform: 0
  - m_Neighbors: 0000000002000000020000000000000000000000010000000100000001000000
    m_Sprites:
    - {fileID: 21300000, guid: 864bc79d5ae010148a99bc07cc872346, type: 3}
    m_AnimationSpeed: 1
    m_PerlinScale: 0.5
    m_RuleTransform: 0
    m_Output: 0
    m_ColliderType: 1
    m_RandomTransform: 0
  - m_Neighbors: 0200000002000000020000000200000001000000020000000100000001000000
    m_Sprites:
    - {fileID: 21300000, guid: c7ae34458e9f53d448619361ec0243f0, type: 3}
    m_AnimationSpeed: 1
    m_PerlinScale: 0.5
    m_RuleTransform: 0
    m_Output: 0
    m_ColliderType: 1
    m_RandomTransform: 0
  - m_Neighbors: 0000000001000000000000000100000001000000000000000100000002000000
    m_Sprites:
    - {fileID: 21300000, guid: 9debe12f5c8dfe940a4beb8238a5ec80, type: 3}
    m_AnimationSpeed: 1
    m_PerlinScale: 0.5
    m_RuleTransform: 0
    m_Output: 0
    m_ColliderType: 1
    m_RandomTransform: 0
  - m_Neighbors: 0000000001000000000000000100000001000000020000000100000000000000
    m_Sprites:
    - {fileID: 21300000, guid: 74c7083a385e8eb45b4785e76e3e9741, type: 3}
    m_AnimationSpeed: 1
    m_PerlinScale: 0.5
    m_RuleTransform: 0
    m_Output: 0
    m_ColliderType: 1
    m_RandomTransform: 0
  - m_Neighbors: 0000000001000000000000000100000001000000000000000100000000000000
    m_Sprites:
    - {fileID: 21300000, guid: 9debe12f5c8dfe940a4beb8238a5ec80, type: 3}
    m_AnimationSpeed: 1
    m_PerlinScale: 0.5
    m_RuleTransform: 0
    m_Output: 0
    m_ColliderType: 1
    m_RandomTransform: 0
